{
    "titulo": "Mi primera aplicacion un poco seria",
    "autor": "Ramon Abramo",
    "db": {
        "host": "localhost",
        "user": "root",
        "password": "",
        "database": "aplicacionFavoritos",
        "port": "3306"
    }
}